%YAML 1.1
%TAG !u! tag:unity3d.com,2011:
--- !u!74 &7400000
AnimationClip:
  m_ObjectHideFlags: 0
  m_CorrespondingSourceObject: {fileID: 0}
  m_PrefabInstance: {fileID: 0}
  m_PrefabAsset: {fileID: 0}
  m_Name: CubeManRun
  serializedVersion: 6
  m_Legacy: 0
  m_Compressed: 0
  m_UseHighQualityCurve: 1
  m_RotationCurves: []
  m_CompressedRotationCurves: []
  m_EulerCurves: []
  m_PositionCurves: []
  m_ScaleCurves: []
  m_FloatCurves: []
  m_PPtrCurves:
  - curve:
    - time: 0
      value: {fileID: 21300000, guid: 56230635f4260f349a3d99a8900e18f3, type: 3}
    - time: 0.05
      value: {fileID: 21300000, guid: 51c84e4c250c1f449be79642b9af6feb, type: 3}
    - time: 0.1
      value: {fileID: 21300000, guid: b5775b35e996ec94e918cf6194558cc6, type: 3}
    - time: 0.15
      value: {fileID: 21300000, guid: b22340eccee51e541b01860049c5e508, type: 3}
    - time: 0.2
      value: {fileID: 21300000, guid: 8c71c84f5c6a7734b867a1b8ec1273cb, type: 3}
    - time: 0.25
      value: {fileID: 21300000, guid: 83018d7f12ce8754b99a410bb8f938d7, type: 3}
    - time: 0.3
      value: {fileID: 21300000, guid: 6e6fdbbaa889ff5428419b4fd15cc024, type: 3}
    - time: 0.35
      value: {fileID: 21300000, guid: 35e789b3fa0917042b5a0f13688c5513, type: 3}
    - time: 0.4
      value: {fileID: 21300000, guid: 6fdcca7b65c0b9d4a8f83466aaf2b30d, type: 3}
    - time: 0.45
      value: {fileID: 21300000, guid: d924fb0d5f794174ba7623fea00abdbc, type: 3}
    - time: 0.5
      value: {fileID: 21300000, guid: 30a19c97f741cc44f906ecdb50c83634, type: 3}
    - time: 0.55
      value: {fileID: 21300000, guid: 9bc2e42dc4a19564fbf78b1e4e0ab165, type: 3}
    - time: 0.6
      value: {fileID: 21300000, guid: bfdd207caa6b7284e950fcf339ffd380, type: 3}
    attribute: m_Sprite
    path: 
    classID: 212
    script: {fileID: 0}
  m_SampleRate: 20
  m_WrapMode: 0
  m_Bounds:
    m_Center: {x: 0, y: 0, z: 0}
    m_Extent: {x: 0, y: 0, z: 0}
  m_ClipBindingConstant:
    genericBindings:
    - serializedVersion: 2
      path: 0
      attribute: 0
      script: {fileID: 0}
      typeID: 212
      customType: 23
      isPPtrCurve: 1
    pptrCurveMapping:
    - {fileID: 21300000, guid: 56230635f4260f349a3d99a8900e18f3, type: 3}
    - {fileID: 21300000, guid: 51c84e4c250c1f449be79642b9af6feb, type: 3}
    - {fileID: 21300000, guid: b5775b35e996ec94e918cf6194558cc6, type: 3}
    - {fileID: 21300000, guid: b22340eccee51e541b01860049c5e508, type: 3}
    - {fileID: 21300000, guid: 8c71c84f5c6a7734b867a1b8ec1273cb, type: 3}
    - {fileID: 21300000, guid: 83018d7f12ce8754b99a410bb8f938d7, type: 3}
    - {fileID: 21300000, guid: 6e6fdbbaa889ff5428419b4fd15cc024, type: 3}
    - {fileID: 21300000, guid: 35e789b3fa0917042b5a0f13688c5513, type: 3}
    - {fileID: 21300000, guid: 6fdcca7b65c0b9d4a8f83466aaf2b30d, type: 3}
    - {fileID: 21300000, guid: d924fb0d5f794174ba7623fea00abdbc, type: 3}
    - {fileID: 21300000, guid: 30a19c97f741cc44f906ecdb50c83634, type: 3}
    - {fileID: 21300000, guid: 9bc2e42dc4a19564fbf78b1e4e0ab165, type: 3}
    - {fileID: 21300000, guid: bfdd207caa6b7284e950fcf339ffd380, type: 3}
  m_AnimationClipSettings:
    serializedVersion: 2
    m_AdditiveReferencePoseClip: {fileID: 0}
    m_AdditiveReferencePoseTime: 0
    m_StartTime: 0
    m_StopTime: 0.65000004
    m_OrientationOffsetY: 0
    m_Level: 0
    m_CycleOffset: 0
    m_HasAdditiveReferencePose: 0
    m_LoopTime: 1
    m_LoopBlend: 0
    m_LoopBlendOrientation: 0
    m_LoopBlendPositionY: 0
    m_LoopBlendPositionXZ: 0
    m_KeepOriginalOrientation: 0
    m_KeepOriginalPositionY: 1
    m_KeepOriginalPositionXZ: 0
    m_HeightFromFeet: 0
    m_Mirror: 0
  m_EditorCurves: []
  m_EulerEditorCurves: []
  m_HasGenericRootTransform: 0
  m_HasMotionFloatCurves: 0
  m_Events: []
