%YAML 1.1
%TAG !u! tag:unity3d.com,2011:
--- !u!74 &7400000
AnimationClip:
  m_ObjectHideFlags: 0
  m_CorrespondingSourceObject: {fileID: 0}
  m_PrefabInstance: {fileID: 0}
  m_PrefabAsset: {fileID: 0}
  m_Name: Ghost_Float
  serializedVersion: 6
  m_Legacy: 0
  m_Compressed: 0
  m_UseHighQualityCurve: 1
  m_RotationCurves: []
  m_CompressedRotationCurves: []
  m_EulerCurves: []
  m_PositionCurves: []
  m_ScaleCurves: []
  m_FloatCurves: []
  m_PPtrCurves:
  - curve:
    - time: 0
      value: {fileID: 21300000, guid: 31417175f7fd10e49b70b83487a6227b, type: 3}
    - time: 0.06666667
      value: {fileID: 21300000, guid: 636d442fb0005cf44a4adf3a70539ced, type: 3}
    - time: 0.13333334
      value: {fileID: 21300000, guid: 6df386538251af04c936471b50cfdc9c, type: 3}
    - time: 0.2
      value: {fileID: 21300000, guid: 301e68b2db7b8b041bf9dfac3515a377, type: 3}
    - time: 0.26666668
      value: {fileID: 21300000, guid: f813d8c758731b048a65278bf77735a5, type: 3}
    - time: 0.33333334
      value: {fileID: 21300000, guid: 6390c00e26b1a4e409bfe33fd1f3b608, type: 3}
    - time: 0.4
      value: {fileID: 21300000, guid: c789318506e890043b67e1f857221ac3, type: 3}
    - time: 0.46666667
      value: {fileID: 21300000, guid: 2141068036a3e5842bcc8ce684ff1ac1, type: 3}
    - time: 0.53333336
      value: {fileID: 21300000, guid: aa81eb7debe58bb4fbbc028e53f09fde, type: 3}
    - time: 0.6
      value: {fileID: 21300000, guid: f951ec4dda71ce04abfc3f8094f84579, type: 3}
    - time: 0.6666667
      value: {fileID: 21300000, guid: 75442e711e8c5bc459166df906d07ffc, type: 3}
    attribute: m_Sprite
    path: 
    classID: 212
    script: {fileID: 0}
  m_SampleRate: 15
  m_WrapMode: 0
  m_Bounds:
    m_Center: {x: 0, y: 0, z: 0}
    m_Extent: {x: 0, y: 0, z: 0}
  m_ClipBindingConstant:
    genericBindings:
    - serializedVersion: 2
      path: 0
      attribute: 0
      script: {fileID: 0}
      typeID: 212
      customType: 23
      isPPtrCurve: 1
    pptrCurveMapping:
    - {fileID: 21300000, guid: 31417175f7fd10e49b70b83487a6227b, type: 3}
    - {fileID: 21300000, guid: 636d442fb0005cf44a4adf3a70539ced, type: 3}
    - {fileID: 21300000, guid: 6df386538251af04c936471b50cfdc9c, type: 3}
    - {fileID: 21300000, guid: 301e68b2db7b8b041bf9dfac3515a377, type: 3}
    - {fileID: 21300000, guid: f813d8c758731b048a65278bf77735a5, type: 3}
    - {fileID: 21300000, guid: 6390c00e26b1a4e409bfe33fd1f3b608, type: 3}
    - {fileID: 21300000, guid: c789318506e890043b67e1f857221ac3, type: 3}
    - {fileID: 21300000, guid: 2141068036a3e5842bcc8ce684ff1ac1, type: 3}
    - {fileID: 21300000, guid: aa81eb7debe58bb4fbbc028e53f09fde, type: 3}
    - {fileID: 21300000, guid: f951ec4dda71ce04abfc3f8094f84579, type: 3}
    - {fileID: 21300000, guid: 75442e711e8c5bc459166df906d07ffc, type: 3}
  m_AnimationClipSettings:
    serializedVersion: 2
    m_AdditiveReferencePoseClip: {fileID: 0}
    m_AdditiveReferencePoseTime: 0
    m_StartTime: 0
    m_StopTime: 0.73333335
    m_OrientationOffsetY: 0
    m_Level: 0
    m_CycleOffset: 0
    m_HasAdditiveReferencePose: 0
    m_LoopTime: 1
    m_LoopBlend: 0
    m_LoopBlendOrientation: 0
    m_LoopBlendPositionY: 0
    m_LoopBlendPositionXZ: 0
    m_KeepOriginalOrientation: 0
    m_KeepOriginalPositionY: 1
    m_KeepOriginalPositionXZ: 0
    m_HeightFromFeet: 0
    m_Mirror: 0
  m_EditorCurves: []
  m_EulerEditorCurves: []
  m_HasGenericRootTransform: 0
  m_HasMotionFloatCurves: 0
  m_Events: []
